cond,list,object,study_code,pair,study_type,n_study_reps,rep,name1,study_question
0,0,39,4,18,image,1,1,computer mouse,1
0,0,88,2,40,word,1,1,soup spoon,1
0,0,110,4,102,image,1,1,reclining or lazy chair,1
0,0,200,2,196,word,1,1,cassette tape,2
1,0,16,4,13,image,1,1,book or textbook,1
1,0,53,2,23,word,1,1,floss,0
1,0,74,4,58,image,1,1,car wheel or rim,1
1,0,197,2,194,word,1,1,smoking pipe,1
2,0,71,2,20,word,1,1,semi truck,3
2,0,88,4,40,image,1,1,soup spoon,0
2,0,179,2,177,word,1,1,"medical bandage (e.g., ace)",1
2,0,200,4,196,image,1,1,cassette tape,2
3,0,39,2,18,word,1,1,computer mouse,2
3,0,53,4,23,image,1,1,floss,2
3,0,110,2,102,word,1,1,reclining or lazy chair,1
3,0,197,4,194,image,1,1,smoking pipe,2
4,0,16,2,13,word,1,1,book or textbook,1
4,0,71,4,20,image,1,1,semi truck,0
4,0,74,2,58,word,1,1,car wheel or rim,1
4,0,179,4,177,image,1,1,"medical bandage (e.g., ace)",3
0,1,86,4,29,image,1,1,steering wheel,1
0,1,107,2,64,word,1,1,ring,1
0,1,124,4,100,image,1,1,magnifying glass,1
0,1,172,2,170,word,1,1,paint brush,2
1,1,139,4,14,image,1,1,bobby or hair pin,0
1,1,121,2,61,word,1,1,mug,0
1,1,73,4,68,image,1,1,toothbrush,2
1,1,156,2,150,word,1,1,ice cube tray,3
2,1,157,2,33,word,1,1,axe,2
2,1,107,4,64,image,1,1,ring,3
2,1,155,2,141,word,1,1,lamp,2
2,1,172,4,170,image,1,1,paint brush,3
3,1,86,2,29,word,1,1,steering wheel,0
3,1,121,4,61,image,1,1,mug,1
3,1,124,2,100,word,1,1,magnifying glass,1
3,1,156,4,150,image,1,1,ice cube tray,0
4,1,139,2,14,word,1,1,bobby or hair pin,2
4,1,157,4,33,image,1,1,axe,1
4,1,73,2,68,word,1,1,toothbrush,0
4,1,155,4,141,image,1,1,lamp,2
0,2,90,4,57,image,1,1,speakers,3
0,2,174,2,131,word,1,1,paint tray,1
0,2,184,4,181,image,1,1,mailbox,0
0,2,207,2,206,word,1,1,hatchet,2
1,2,122,4,32,image,1,1,"fishing lure, hook, or bait",0
1,2,135,2,117,word,1,1,earring,2
1,2,163,4,161,image,1,1,moccasin,0
1,2,208,2,202,word,1,1,hockey stick,0
2,2,98,2,78,word,1,1,scarf,2
2,2,174,4,131,image,1,1,paint tray,2
2,2,188,2,186,word,1,1,vinyl record or disk,0
2,2,207,4,206,image,1,1,hatchet,2
3,2,90,2,57,word,1,1,speakers,0
3,2,135,4,117,image,1,1,earring,0
3,2,184,2,181,word,1,1,mailbox,0
3,2,208,4,202,image,1,1,hockey stick,1
4,2,122,2,32,word,1,1,"fishing lure, hook, or bait",1
4,2,98,4,78,image,1,1,scarf,1
4,2,163,2,161,word,1,1,moccasin,3
4,2,188,4,186,image,1,1,vinyl record or disk,0
0,3,47,4,31,image,1,1,dice,3
0,3,79,2,59,word,1,1,sunglasses,1
0,3,125,4,111,image,1,1,cork screw,1
0,3,205,2,204,word,1,1,cheese grater,2
1,3,153,4,8,image,1,1,knife,1
1,3,165,2,45,word,1,1,mouse trap,0
1,3,191,4,60,image,1,1,water hose,2
1,3,166,2,129,word,1,1,nail,0
2,3,44,2,43,word,1,1,crib,1
2,3,79,4,59,image,1,1,sunglasses,0
2,3,143,2,128,word,1,1,high heel shoe,3
2,3,205,4,204,image,1,1,cheese grater,0
3,3,47,2,31,word,1,1,dice,3
3,3,165,4,45,image,1,1,mouse trap,1
3,3,125,2,111,word,1,1,cork screw,1
3,3,166,4,129,image,1,1,nail,0
4,3,153,2,8,word,1,1,knife,0
4,3,44,4,43,image,1,1,crib,2
4,3,191,2,60,word,1,1,water hose,3
4,3,143,4,128,image,1,1,high heel shoe,2
0,4,52,4,26,image,1,1,deodorant,1
0,4,95,2,66,word,1,1,sneakers,2
0,4,147,4,146,image,1,1,hole puncher,0
0,4,185,2,183,word,1,1,padlock,2
1,4,119,4,7,image,1,1,pill capsule,1
1,4,80,2,50,word,1,1,sundial,3
1,4,190,4,93,image,1,1,fire hydrant,3
1,4,162,2,159,word,1,1,electric mixer,2
2,4,69,2,30,word,1,1,umbrella,0
2,4,95,4,66,image,1,1,sneakers,0
2,4,176,2,154,word,1,1,paper clip,1
2,4,185,4,183,image,1,1,padlock,0
3,4,52,2,26,word,1,1,deodorant,0
3,4,80,4,50,image,1,1,sundial,3
3,4,147,2,146,word,1,1,hole puncher,1
3,4,162,4,159,image,1,1,electric mixer,1
4,4,119,2,7,word,1,1,pill capsule,2
4,4,69,4,30,image,1,1,umbrella,0
4,4,190,2,93,word,1,1,fire hydrant,3
4,4,176,4,154,image,1,1,paper clip,0
0,5,103,4,11,image,1,1,rug,0
0,5,113,2,76,word,1,1,radio,2
0,5,167,4,126,image,1,1,finger nail clippers,1
0,5,198,2,193,word,1,1,chest,0
1,5,34,4,4,image,1,1,chess board,2
1,5,112,2,37,word,1,1,rake,0
1,5,118,4,115,image,1,1,pillow,3
1,5,144,2,140,word,1,1,marker,3
2,5,137,2,28,word,1,1,flask,0
2,5,113,4,76,image,1,1,radio,2
2,5,192,2,133,word,1,1,ladder,3
2,5,198,4,193,image,1,1,chest,3
3,5,103,2,11,word,1,1,rug,3
3,5,112,4,37,image,1,1,rake,0
3,5,167,2,126,word,1,1,finger nail clippers,3
3,5,144,4,140,image,1,1,marker,1
4,5,34,2,4,word,1,1,chess board,2
4,5,137,4,28,image,1,1,flask,2
4,5,118,2,115,word,1,1,pillow,3
4,5,192,4,133,image,1,1,ladder,2
0,0,18,4,39,image,1,1,cardboard box,0
0,0,40,2,88,word,1,1,cookie cutter,3
0,0,102,4,110,image,1,1,saddle,2
0,0,196,2,200,word,1,1,faucet,3
1,0,13,4,16,image,1,1,binder,1
1,0,23,2,53,word,1,1,bucket,0
1,0,58,4,74,image,1,1,compact disc (cd),1
1,0,194,2,197,word,1,1,pliers,0
2,0,20,2,71,word,1,1,briefcase,2
2,0,40,4,88,image,1,1,cookie cutter,0
2,0,177,2,179,word,1,1,paper towel roll,2
2,0,196,4,200,image,1,1,faucet,3
3,0,18,2,39,word,1,1,cardboard box,2
3,0,23,4,53,image,1,1,bucket,3
3,0,102,2,110,word,1,1,saddle,2
3,0,194,4,197,image,1,1,pliers,2
4,0,13,2,16,word,1,1,binder,3
4,0,20,4,71,image,1,1,briefcase,3
4,0,58,2,74,word,1,1,compact disc (cd),0
4,0,177,4,179,image,1,1,paper towel roll,0
0,1,29,4,86,image,1,1,candlestick holder,3
0,1,64,2,107,word,1,1,watch,1
0,1,100,4,124,image,1,1,satellite,3
0,1,170,2,172,word,1,1,spiral notebook,2
1,1,14,4,139,image,1,1,binoculars,2
1,1,61,2,121,word,1,1,wine glass,2
1,1,68,4,73,image,1,1,vase,2
1,1,150,2,156,word,1,1,electric kettle,0
2,1,33,2,157,word,1,1,rolling chair,2
2,1,64,4,107,image,1,1,watch,0
2,1,141,2,155,word,1,1,purse,3
2,1,170,4,172,image,1,1,spiral notebook,2
3,1,29,2,86,word,1,1,candlestick holder,0
3,1,61,4,121,image,1,1,wine glass,0
3,1,100,2,124,word,1,1,satellite,3
3,1,150,4,156,image,1,1,electric kettle,1
4,1,14,2,139,word,1,1,binoculars,2
4,1,33,4,157,image,1,1,rolling chair,2
4,1,68,2,73,word,1,1,vase,0
4,1,141,4,155,image,1,1,purse,0
0,2,57,4,90,image,1,1,computer drive or chip,1
0,2,131,2,174,word,1,1,glove,0
0,2,181,4,184,image,1,1,clipboard,3
0,2,206,2,207,word,1,1,frame,1
1,2,32,4,122,image,1,1,chain,1
1,2,117,2,135,word,1,1,airplane,3
1,2,161,4,163,image,1,1,mechanical pencil,0
1,2,202,2,208,word,1,1,zip tie,1
2,2,78,2,98,word,1,1,sweater,0
2,2,131,4,174,image,1,1,glove,1
2,2,186,2,188,word,1,1,lantern,1
2,2,206,4,207,image,1,1,frame,0
3,2,57,2,90,word,1,1,computer drive or chip,1
3,2,117,4,135,image,1,1,airplane,0
3,2,181,2,184,word,1,1,clipboard,2
3,2,202,4,208,image,1,1,zip tie,3
4,2,32,2,122,word,1,1,chain,3
4,2,78,4,98,image,1,1,sweater,2
4,2,161,2,163,word,1,1,mechanical pencil,3
4,2,186,4,188,image,1,1,lantern,0
0,3,31,4,47,image,1,1,cell phone,2
0,3,59,2,79,word,1,1,car keys,3
0,3,111,4,125,image,1,1,child's rattle,0
0,3,204,2,205,word,1,1,bow tie,0
1,3,8,4,153,image,1,1,bed,3
1,3,45,2,165,word,1,1,cutting board,3
1,3,60,4,191,image,1,1,"ethernet or electrical cable, cord, or wire",0
1,3,129,2,166,word,1,1,knotted rope,2
2,3,43,2,44,word,1,1,crayon,2
2,3,59,4,79,image,1,1,car keys,0
2,3,128,2,143,word,1,1,life jacket or vest,3
2,3,204,4,205,image,1,1,bow tie,2
3,3,31,2,47,word,1,1,cell phone,3
3,3,45,4,165,image,1,1,cutting board,3
3,3,111,2,125,word,1,1,child's rattle,0
3,3,129,4,166,image,1,1,knotted rope,0
4,3,8,2,153,word,1,1,bed,3
4,3,43,4,44,image,1,1,crayon,0
4,3,60,2,191,word,1,1,"ethernet or electrical cable, cord, or wire",0
4,3,128,4,143,image,1,1,life jacket or vest,2
0,4,26,4,52,image,1,1,camera,3
0,4,66,2,95,word,1,1,wallet,2
0,4,146,4,147,image,1,1,door hinge,0
0,4,183,2,185,word,1,1,microphone,3
1,4,7,4,119,image,1,1,battery,0
1,4,50,2,80,word,1,1,wooden dresser,2
1,4,93,4,190,image,1,1,sled,0
1,4,159,2,162,word,1,1,crowbar,1
2,4,30,2,69,word,1,1,cane,0
2,4,66,4,95,image,1,1,wallet,2
2,4,154,2,176,word,1,1,ladle,0
2,4,183,4,185,image,1,1,microphone,3
3,4,26,2,52,word,1,1,camera,1
3,4,50,4,80,image,1,1,wooden dresser,1
3,4,146,2,147,word,1,1,door hinge,3
3,4,159,4,162,image,1,1,crowbar,0
4,4,7,2,119,word,1,1,battery,2
4,4,30,4,69,image,1,1,cane,0
4,4,93,2,190,word,1,1,sled,3
4,4,154,4,176,image,1,1,ladle,0
0,5,11,4,103,image,1,1,bib,3
0,5,76,2,113,word,1,1,thimble,2
0,5,126,4,167,image,1,1,wood stove,1
0,5,193,2,198,word,1,1,razor,2
1,5,4,4,34,image,1,1,bandanna,2
1,5,37,2,112,word,1,1,comb,2
1,5,115,4,118,image,1,1,puzzle piece,2
1,5,140,2,144,word,1,1,hammer,2
2,5,28,2,137,word,1,1,candle,0
2,5,76,4,113,image,1,1,thimble,3
2,5,133,2,192,word,1,1,guitar,2
2,5,193,4,198,image,1,1,razor,3
3,5,11,2,103,word,1,1,bib,0
3,5,37,4,112,image,1,1,comb,0
3,5,126,2,167,word,1,1,wood stove,1
3,5,140,4,144,image,1,1,hammer,2
4,5,4,2,34,word,1,1,bandanna,1
4,5,28,4,137,image,1,1,candle,3
4,5,115,2,118,word,1,1,puzzle piece,2
4,5,133,4,192,image,1,1,guitar,2
0,0,16,3,13,word,3,1,book or textbook,3
0,0,16,3,13,word,3,2,book or textbook,0
0,0,16,3,13,word,3,3,book or textbook,1
0,0,71,5,20,image,3,1,semi truck,2
0,0,71,5,20,image,3,2,semi truck,0
0,0,71,5,20,image,3,3,semi truck,3
0,0,74,3,58,word,3,1,car wheel or rim,1
0,0,74,3,58,word,3,2,car wheel or rim,2
0,0,74,3,58,word,3,3,car wheel or rim,3
0,0,179,5,177,image,3,1,"medical bandage (e.g., ace)",2
0,0,179,5,177,image,3,2,"medical bandage (e.g., ace)",0
0,0,179,5,177,image,3,3,"medical bandage (e.g., ace)",1
1,0,39,5,18,image,3,1,computer mouse,1
1,0,39,5,18,image,3,2,computer mouse,0
1,0,39,5,18,image,3,3,computer mouse,2
1,0,88,3,40,word,3,1,soup spoon,2
1,0,88,3,40,word,3,2,soup spoon,0
1,0,88,3,40,word,3,3,soup spoon,3
1,0,110,5,102,image,3,1,reclining or lazy chair,2
1,0,110,5,102,image,3,2,reclining or lazy chair,3
1,0,110,5,102,image,3,3,reclining or lazy chair,1
1,0,200,3,196,word,3,1,cassette tape,0
1,0,200,3,196,word,3,2,cassette tape,1
1,0,200,3,196,word,3,3,cassette tape,3
2,0,16,5,13,image,3,1,book or textbook,0
2,0,16,5,13,image,3,2,book or textbook,2
2,0,16,5,13,image,3,3,book or textbook,1
2,0,53,3,23,word,3,1,floss,2
2,0,53,3,23,word,3,2,floss,1
2,0,53,3,23,word,3,3,floss,3
2,0,74,5,58,image,3,1,car wheel or rim,1
2,0,74,5,58,image,3,2,car wheel or rim,0
2,0,74,5,58,image,3,3,car wheel or rim,2
2,0,197,3,194,word,3,1,smoking pipe,0
2,0,197,3,194,word,3,2,smoking pipe,2
2,0,197,3,194,word,3,3,smoking pipe,1
3,0,71,3,20,word,3,1,semi truck,3
3,0,71,3,20,word,3,2,semi truck,0
3,0,71,3,20,word,3,3,semi truck,1
3,0,88,5,40,image,3,1,soup spoon,0
3,0,88,5,40,image,3,2,soup spoon,1
3,0,88,5,40,image,3,3,soup spoon,3
3,0,179,3,177,word,3,1,"medical bandage (e.g., ace)",2
3,0,179,3,177,word,3,2,"medical bandage (e.g., ace)",0
3,0,179,3,177,word,3,3,"medical bandage (e.g., ace)",3
3,0,200,5,196,image,3,1,cassette tape,0
3,0,200,5,196,image,3,2,cassette tape,3
3,0,200,5,196,image,3,3,cassette tape,1
4,0,39,3,18,word,3,1,computer mouse,0
4,0,39,3,18,word,3,2,computer mouse,1
4,0,39,3,18,word,3,3,computer mouse,2
4,0,53,5,23,image,3,1,floss,1
4,0,53,5,23,image,3,2,floss,0
4,0,53,5,23,image,3,3,floss,2
4,0,110,3,102,word,3,1,reclining or lazy chair,2
4,0,110,3,102,word,3,2,reclining or lazy chair,0
4,0,110,3,102,word,3,3,reclining or lazy chair,1
4,0,197,5,194,image,3,1,smoking pipe,3
4,0,197,5,194,image,3,2,smoking pipe,0
4,0,197,5,194,image,3,3,smoking pipe,1
0,1,139,3,14,word,3,1,bobby or hair pin,0
0,1,139,3,14,word,3,2,bobby or hair pin,2
0,1,139,3,14,word,3,3,bobby or hair pin,3
0,1,157,5,33,image,3,1,axe,1
0,1,157,5,33,image,3,2,axe,3
0,1,157,5,33,image,3,3,axe,2
0,1,73,3,68,word,3,1,toothbrush,3
0,1,73,3,68,word,3,2,toothbrush,0
0,1,73,3,68,word,3,3,toothbrush,1
0,1,155,5,141,image,3,1,lamp,1
0,1,155,5,141,image,3,2,lamp,0
0,1,155,5,141,image,3,3,lamp,3
1,1,86,5,29,image,3,1,steering wheel,0
1,1,86,5,29,image,3,2,steering wheel,2
1,1,86,5,29,image,3,3,steering wheel,1
1,1,107,3,64,word,3,1,ring,1
1,1,107,3,64,word,3,2,ring,0
1,1,107,3,64,word,3,3,ring,2
1,1,124,5,100,image,3,1,magnifying glass,2
1,1,124,5,100,image,3,2,magnifying glass,0
1,1,124,5,100,image,3,3,magnifying glass,1
1,1,172,3,170,word,3,1,paint brush,1
1,1,172,3,170,word,3,2,paint brush,2
1,1,172,3,170,word,3,3,paint brush,0
2,1,139,5,14,image,3,1,bobby or hair pin,1
2,1,139,5,14,image,3,2,bobby or hair pin,0
2,1,139,5,14,image,3,3,bobby or hair pin,3
2,1,121,3,61,word,3,1,mug,1
2,1,121,3,61,word,3,2,mug,3
2,1,121,3,61,word,3,3,mug,2
2,1,73,5,68,image,3,1,toothbrush,1
2,1,73,5,68,image,3,2,toothbrush,3
2,1,73,5,68,image,3,3,toothbrush,2
2,1,156,3,150,word,3,1,ice cube tray,3
2,1,156,3,150,word,3,2,ice cube tray,1
2,1,156,3,150,word,3,3,ice cube tray,0
3,1,157,3,33,word,3,1,axe,1
3,1,157,3,33,word,3,2,axe,0
3,1,157,3,33,word,3,3,axe,3
3,1,107,5,64,image,3,1,ring,3
3,1,107,5,64,image,3,2,ring,1
3,1,107,5,64,image,3,3,ring,2
3,1,155,3,141,word,3,1,lamp,1
3,1,155,3,141,word,3,2,lamp,0
3,1,155,3,141,word,3,3,lamp,2
3,1,172,5,170,image,3,1,paint brush,1
3,1,172,5,170,image,3,2,paint brush,2
3,1,172,5,170,image,3,3,paint brush,3
4,1,86,3,29,word,3,1,steering wheel,3
4,1,86,3,29,word,3,2,steering wheel,0
4,1,86,3,29,word,3,3,steering wheel,1
4,1,121,5,61,image,3,1,mug,2
4,1,121,5,61,image,3,2,mug,1
4,1,121,5,61,image,3,3,mug,3
4,1,124,3,100,word,3,1,magnifying glass,0
4,1,124,3,100,word,3,2,magnifying glass,2
4,1,124,3,100,word,3,3,magnifying glass,1
4,1,156,5,150,image,3,1,ice cube tray,3
4,1,156,5,150,image,3,2,ice cube tray,1
4,1,156,5,150,image,3,3,ice cube tray,2
0,2,122,3,32,word,3,1,"fishing lure, hook, or bait",0
0,2,122,3,32,word,3,2,"fishing lure, hook, or bait",2
0,2,122,3,32,word,3,3,"fishing lure, hook, or bait",1
0,2,98,5,78,image,3,1,scarf,2
0,2,98,5,78,image,3,2,scarf,3
0,2,98,5,78,image,3,3,scarf,1
0,2,163,3,161,word,3,1,moccasin,3
0,2,163,3,161,word,3,2,moccasin,2
0,2,163,3,161,word,3,3,moccasin,1
0,2,188,5,186,image,3,1,vinyl record or disk,2
0,2,188,5,186,image,3,2,vinyl record or disk,1
0,2,188,5,186,image,3,3,vinyl record or disk,0
1,2,90,5,57,image,3,1,speakers,1
1,2,90,5,57,image,3,2,speakers,3
1,2,90,5,57,image,3,3,speakers,0
1,2,174,3,131,word,3,1,paint tray,0
1,2,174,3,131,word,3,2,paint tray,3
1,2,174,3,131,word,3,3,paint tray,1
1,2,184,5,181,image,3,1,mailbox,2
1,2,184,5,181,image,3,2,mailbox,0
1,2,184,5,181,image,3,3,mailbox,3
1,2,207,3,206,word,3,1,hatchet,3
1,2,207,3,206,word,3,2,hatchet,2
1,2,207,3,206,word,3,3,hatchet,1
2,2,122,5,32,image,3,1,"fishing lure, hook, or bait",0
2,2,122,5,32,image,3,2,"fishing lure, hook, or bait",1
2,2,122,5,32,image,3,3,"fishing lure, hook, or bait",3
2,2,135,3,117,word,3,1,earring,0
2,2,135,3,117,word,3,2,earring,2
2,2,135,3,117,word,3,3,earring,1
2,2,163,5,161,image,3,1,moccasin,1
2,2,163,5,161,image,3,2,moccasin,0
2,2,163,5,161,image,3,3,moccasin,3
2,2,208,3,202,word,3,1,hockey stick,1
2,2,208,3,202,word,3,2,hockey stick,3
2,2,208,3,202,word,3,3,hockey stick,2
3,2,98,3,78,word,3,1,scarf,3
3,2,98,3,78,word,3,2,scarf,0
3,2,98,3,78,word,3,3,scarf,1
3,2,174,5,131,image,3,1,paint tray,0
3,2,174,5,131,image,3,2,paint tray,1
3,2,174,5,131,image,3,3,paint tray,2
3,2,188,3,186,word,3,1,vinyl record or disk,3
3,2,188,3,186,word,3,2,vinyl record or disk,2
3,2,188,3,186,word,3,3,vinyl record or disk,0
3,2,207,5,206,image,3,1,hatchet,1
3,2,207,5,206,image,3,2,hatchet,3
3,2,207,5,206,image,3,3,hatchet,0
4,2,90,3,57,word,3,1,speakers,2
4,2,90,3,57,word,3,2,speakers,0
4,2,90,3,57,word,3,3,speakers,1
4,2,135,5,117,image,3,1,earring,2
4,2,135,5,117,image,3,2,earring,0
4,2,135,5,117,image,3,3,earring,1
4,2,184,3,181,word,3,1,mailbox,3
4,2,184,3,181,word,3,2,mailbox,2
4,2,184,3,181,word,3,3,mailbox,1
4,2,208,5,202,image,3,1,hockey stick,0
4,2,208,5,202,image,3,2,hockey stick,3
4,2,208,5,202,image,3,3,hockey stick,1
0,3,153,3,8,word,3,1,knife,2
0,3,153,3,8,word,3,2,knife,0
0,3,153,3,8,word,3,3,knife,1
0,3,44,5,43,image,3,1,crib,3
0,3,44,5,43,image,3,2,crib,0
0,3,44,5,43,image,3,3,crib,2
0,3,191,3,60,word,3,1,water hose,0
0,3,191,3,60,word,3,2,water hose,3
0,3,191,3,60,word,3,3,water hose,2
0,3,143,5,128,image,3,1,high heel shoe,3
0,3,143,5,128,image,3,2,high heel shoe,2
0,3,143,5,128,image,3,3,high heel shoe,0
1,3,47,5,31,image,3,1,dice,0
1,3,47,5,31,image,3,2,dice,1
1,3,47,5,31,image,3,3,dice,3
1,3,79,3,59,word,3,1,sunglasses,3
1,3,79,3,59,word,3,2,sunglasses,2
1,3,79,3,59,word,3,3,sunglasses,1
1,3,125,5,111,image,3,1,cork screw,1
1,3,125,5,111,image,3,2,cork screw,0
1,3,125,5,111,image,3,3,cork screw,3
1,3,205,3,204,word,3,1,cheese grater,3
1,3,205,3,204,word,3,2,cheese grater,1
1,3,205,3,204,word,3,3,cheese grater,0
2,3,153,5,8,image,3,1,knife,0
2,3,153,5,8,image,3,2,knife,1
2,3,153,5,8,image,3,3,knife,3
2,3,165,3,45,word,3,1,mouse trap,3
2,3,165,3,45,word,3,2,mouse trap,1
2,3,165,3,45,word,3,3,mouse trap,2
2,3,191,5,60,image,3,1,water hose,3
2,3,191,5,60,image,3,2,water hose,0
2,3,191,5,60,image,3,3,water hose,2
2,3,166,3,129,word,3,1,nail,0
2,3,166,3,129,word,3,2,nail,1
2,3,166,3,129,word,3,3,nail,2
3,3,44,3,43,word,3,1,crib,3
3,3,44,3,43,word,3,2,crib,2
3,3,44,3,43,word,3,3,crib,1
3,3,79,5,59,image,3,1,sunglasses,0
3,3,79,5,59,image,3,2,sunglasses,2
3,3,79,5,59,image,3,3,sunglasses,1
3,3,143,3,128,word,3,1,high heel shoe,2
3,3,143,3,128,word,3,2,high heel shoe,3
3,3,143,3,128,word,3,3,high heel shoe,1
3,3,205,5,204,image,3,1,cheese grater,1
3,3,205,5,204,image,3,2,cheese grater,3
3,3,205,5,204,image,3,3,cheese grater,2
4,3,47,3,31,word,3,1,dice,0
4,3,47,3,31,word,3,2,dice,2
4,3,47,3,31,word,3,3,dice,1
4,3,165,5,45,image,3,1,mouse trap,0
4,3,165,5,45,image,3,2,mouse trap,1
4,3,165,5,45,image,3,3,mouse trap,3
4,3,125,3,111,word,3,1,cork screw,3
4,3,125,3,111,word,3,2,cork screw,1
4,3,125,3,111,word,3,3,cork screw,2
4,3,166,5,129,image,3,1,nail,0
4,3,166,5,129,image,3,2,nail,3
4,3,166,5,129,image,3,3,nail,2
0,4,119,3,7,word,3,1,pill capsule,3
0,4,119,3,7,word,3,2,pill capsule,2
0,4,119,3,7,word,3,3,pill capsule,1
0,4,69,5,30,image,3,1,umbrella,0
0,4,69,5,30,image,3,2,umbrella,1
0,4,69,5,30,image,3,3,umbrella,2
0,4,190,3,93,word,3,1,fire hydrant,2
0,4,190,3,93,word,3,2,fire hydrant,3
0,4,190,3,93,word,3,3,fire hydrant,0
0,4,176,5,154,image,3,1,paper clip,0
0,4,176,5,154,image,3,2,paper clip,3
0,4,176,5,154,image,3,3,paper clip,2
1,4,52,5,26,image,3,1,deodorant,3
1,4,52,5,26,image,3,2,deodorant,2
1,4,52,5,26,image,3,3,deodorant,1
1,4,95,3,66,word,3,1,sneakers,2
1,4,95,3,66,word,3,2,sneakers,1
1,4,95,3,66,word,3,3,sneakers,3
1,4,147,5,146,image,3,1,hole puncher,2
1,4,147,5,146,image,3,2,hole puncher,3
1,4,147,5,146,image,3,3,hole puncher,1
1,4,185,3,183,word,3,1,padlock,0
1,4,185,3,183,word,3,2,padlock,3
1,4,185,3,183,word,3,3,padlock,1
2,4,119,5,7,image,3,1,pill capsule,0
2,4,119,5,7,image,3,2,pill capsule,1
2,4,119,5,7,image,3,3,pill capsule,3
2,4,80,3,50,word,3,1,sundial,3
2,4,80,3,50,word,3,2,sundial,0
2,4,80,3,50,word,3,3,sundial,1
2,4,190,5,93,image,3,1,fire hydrant,1
2,4,190,5,93,image,3,2,fire hydrant,0
2,4,190,5,93,image,3,3,fire hydrant,3
2,4,162,3,159,word,3,1,electric mixer,1
2,4,162,3,159,word,3,2,electric mixer,0
2,4,162,3,159,word,3,3,electric mixer,2
3,4,69,3,30,word,3,1,umbrella,0
3,4,69,3,30,word,3,2,umbrella,2
3,4,69,3,30,word,3,3,umbrella,1
3,4,95,5,66,image,3,1,sneakers,1
3,4,95,5,66,image,3,2,sneakers,3
3,4,95,5,66,image,3,3,sneakers,0
3,4,176,3,154,word,3,1,paper clip,3
3,4,176,3,154,word,3,2,paper clip,0
3,4,176,3,154,word,3,3,paper clip,1
3,4,185,5,183,image,3,1,padlock,2
3,4,185,5,183,image,3,2,padlock,1
3,4,185,5,183,image,3,3,padlock,0
4,4,52,3,26,word,3,1,deodorant,3
4,4,52,3,26,word,3,2,deodorant,2
4,4,52,3,26,word,3,3,deodorant,1
4,4,80,5,50,image,3,1,sundial,3
4,4,80,5,50,image,3,2,sundial,0
4,4,80,5,50,image,3,3,sundial,1
4,4,147,3,146,word,3,1,hole puncher,2
4,4,147,3,146,word,3,2,hole puncher,1
4,4,147,3,146,word,3,3,hole puncher,0
4,4,162,5,159,image,3,1,electric mixer,1
4,4,162,5,159,image,3,2,electric mixer,3
4,4,162,5,159,image,3,3,electric mixer,0
0,5,34,3,4,word,3,1,chess board,2
0,5,34,3,4,word,3,2,chess board,1
0,5,34,3,4,word,3,3,chess board,3
0,5,137,5,28,image,3,1,flask,3
0,5,137,5,28,image,3,2,flask,2
0,5,137,5,28,image,3,3,flask,1
0,5,118,3,115,word,3,1,pillow,1
0,5,118,3,115,word,3,2,pillow,2
0,5,118,3,115,word,3,3,pillow,0
0,5,192,5,133,image,3,1,ladder,0
0,5,192,5,133,image,3,2,ladder,1
0,5,192,5,133,image,3,3,ladder,3
1,5,103,5,11,image,3,1,rug,2
1,5,103,5,11,image,3,2,rug,3
1,5,103,5,11,image,3,3,rug,0
1,5,113,3,76,word,3,1,radio,0
1,5,113,3,76,word,3,2,radio,3
1,5,113,3,76,word,3,3,radio,1
1,5,167,5,126,image,3,1,finger nail clippers,1
1,5,167,5,126,image,3,2,finger nail clippers,2
1,5,167,5,126,image,3,3,finger nail clippers,0
1,5,198,3,193,word,3,1,chest,2
1,5,198,3,193,word,3,2,chest,1
1,5,198,3,193,word,3,3,chest,3
2,5,34,5,4,image,3,1,chess board,1
2,5,34,5,4,image,3,2,chess board,0
2,5,34,5,4,image,3,3,chess board,2
2,5,112,3,37,word,3,1,rake,0
2,5,112,3,37,word,3,2,rake,2
2,5,112,3,37,word,3,3,rake,3
2,5,118,5,115,image,3,1,pillow,0
2,5,118,5,115,image,3,2,pillow,2
2,5,118,5,115,image,3,3,pillow,1
2,5,144,3,140,word,3,1,marker,2
2,5,144,3,140,word,3,2,marker,0
2,5,144,3,140,word,3,3,marker,1
3,5,137,3,28,word,3,1,flask,0
3,5,137,3,28,word,3,2,flask,1
3,5,137,3,28,word,3,3,flask,2
3,5,113,5,76,image,3,1,radio,3
3,5,113,5,76,image,3,2,radio,2
3,5,113,5,76,image,3,3,radio,1
3,5,192,3,133,word,3,1,ladder,3
3,5,192,3,133,word,3,2,ladder,1
3,5,192,3,133,word,3,3,ladder,2
3,5,198,5,193,image,3,1,chest,0
3,5,198,5,193,image,3,2,chest,3
3,5,198,5,193,image,3,3,chest,2
4,5,103,3,11,word,3,1,rug,0
4,5,103,3,11,word,3,2,rug,1
4,5,103,3,11,word,3,3,rug,3
4,5,112,5,37,image,3,1,rake,2
4,5,112,5,37,image,3,2,rake,0
4,5,112,5,37,image,3,3,rake,3
4,5,167,3,126,word,3,1,finger nail clippers,0
4,5,167,3,126,word,3,2,finger nail clippers,2
4,5,167,3,126,word,3,3,finger nail clippers,1
4,5,144,5,140,image,3,1,marker,2
4,5,144,5,140,image,3,2,marker,3
4,5,144,5,140,image,3,3,marker,1
0,0,13,3,16,word,3,1,binder,1
0,0,13,3,16,word,3,2,binder,0
0,0,13,3,16,word,3,3,binder,3
0,0,20,5,71,image,3,1,briefcase,3
0,0,20,5,71,image,3,2,briefcase,2
0,0,20,5,71,image,3,3,briefcase,1
0,0,58,3,74,word,3,1,compact disc (cd),3
0,0,58,3,74,word,3,2,compact disc (cd),0
0,0,58,3,74,word,3,3,compact disc (cd),2
0,0,177,5,179,image,3,1,paper towel roll,2
0,0,177,5,179,image,3,2,paper towel roll,0
0,0,177,5,179,image,3,3,paper towel roll,1
1,0,18,5,39,image,3,1,cardboard box,0
1,0,18,5,39,image,3,2,cardboard box,2
1,0,18,5,39,image,3,3,cardboard box,3
1,0,40,3,88,word,3,1,cookie cutter,1
1,0,40,3,88,word,3,2,cookie cutter,0
1,0,40,3,88,word,3,3,cookie cutter,2
1,0,102,5,110,image,3,1,saddle,3
1,0,102,5,110,image,3,2,saddle,2
1,0,102,5,110,image,3,3,saddle,1
1,0,196,3,200,word,3,1,faucet,3
1,0,196,3,200,word,3,2,faucet,0
1,0,196,3,200,word,3,3,faucet,2
2,0,13,5,16,image,3,1,binder,3
2,0,13,5,16,image,3,2,binder,0
2,0,13,5,16,image,3,3,binder,1
2,0,23,3,53,word,3,1,bucket,2
2,0,23,3,53,word,3,2,bucket,3
2,0,23,3,53,word,3,3,bucket,1
2,0,58,5,74,image,3,1,compact disc (cd),3
2,0,58,5,74,image,3,2,compact disc (cd),1
2,0,58,5,74,image,3,3,compact disc (cd),0
2,0,194,3,197,word,3,1,pliers,0
2,0,194,3,197,word,3,2,pliers,1
2,0,194,3,197,word,3,3,pliers,2
3,0,20,3,71,word,3,1,briefcase,0
3,0,20,3,71,word,3,2,briefcase,1
3,0,20,3,71,word,3,3,briefcase,2
3,0,40,5,88,image,3,1,cookie cutter,1
3,0,40,5,88,image,3,2,cookie cutter,3
3,0,40,5,88,image,3,3,cookie cutter,0
3,0,177,3,179,word,3,1,paper towel roll,3
3,0,177,3,179,word,3,2,paper towel roll,1
3,0,177,3,179,word,3,3,paper towel roll,0
3,0,196,5,200,image,3,1,faucet,1
3,0,196,5,200,image,3,2,faucet,0
3,0,196,5,200,image,3,3,faucet,2
4,0,18,3,39,word,3,1,cardboard box,1
4,0,18,3,39,word,3,2,cardboard box,3
4,0,18,3,39,word,3,3,cardboard box,2
4,0,23,5,53,image,3,1,bucket,1
4,0,23,5,53,image,3,2,bucket,3
4,0,23,5,53,image,3,3,bucket,2
4,0,102,3,110,word,3,1,saddle,1
4,0,102,3,110,word,3,2,saddle,2
4,0,102,3,110,word,3,3,saddle,0
4,0,194,5,197,image,3,1,pliers,1
4,0,194,5,197,image,3,2,pliers,3
4,0,194,5,197,image,3,3,pliers,2
0,1,14,3,139,word,3,1,binoculars,0
0,1,14,3,139,word,3,2,binoculars,2
0,1,14,3,139,word,3,3,binoculars,1
0,1,33,5,157,image,3,1,rolling chair,0
0,1,33,5,157,image,3,2,rolling chair,2
0,1,33,5,157,image,3,3,rolling chair,3
0,1,68,3,73,word,3,1,vase,1
0,1,68,3,73,word,3,2,vase,2
0,1,68,3,73,word,3,3,vase,3
0,1,141,5,155,image,3,1,purse,1
0,1,141,5,155,image,3,2,purse,2
0,1,141,5,155,image,3,3,purse,3
1,1,29,5,86,image,3,1,candlestick holder,1
1,1,29,5,86,image,3,2,candlestick holder,2
1,1,29,5,86,image,3,3,candlestick holder,3
1,1,64,3,107,word,3,1,watch,2
1,1,64,3,107,word,3,2,watch,1
1,1,64,3,107,word,3,3,watch,0
1,1,100,5,124,image,3,1,satellite,0
1,1,100,5,124,image,3,2,satellite,3
1,1,100,5,124,image,3,3,satellite,2
1,1,170,3,172,word,3,1,spiral notebook,1
1,1,170,3,172,word,3,2,spiral notebook,2
1,1,170,3,172,word,3,3,spiral notebook,3
2,1,14,5,139,image,3,1,binoculars,0
2,1,14,5,139,image,3,2,binoculars,3
2,1,14,5,139,image,3,3,binoculars,2
2,1,61,3,121,word,3,1,wine glass,3
2,1,61,3,121,word,3,2,wine glass,0
2,1,61,3,121,word,3,3,wine glass,2
2,1,68,5,73,image,3,1,vase,3
2,1,68,5,73,image,3,2,vase,1
2,1,68,5,73,image,3,3,vase,2
2,1,150,3,156,word,3,1,electric kettle,1
2,1,150,3,156,word,3,2,electric kettle,2
2,1,150,3,156,word,3,3,electric kettle,3
3,1,33,3,157,word,3,1,rolling chair,3
3,1,33,3,157,word,3,2,rolling chair,2
3,1,33,3,157,word,3,3,rolling chair,1
3,1,64,5,107,image,3,1,watch,2
3,1,64,5,107,image,3,2,watch,0
3,1,64,5,107,image,3,3,watch,3
3,1,141,3,155,word,3,1,purse,1
3,1,141,3,155,word,3,2,purse,2
3,1,141,3,155,word,3,3,purse,0
3,1,170,5,172,image,3,1,spiral notebook,1
3,1,170,5,172,image,3,2,spiral notebook,0
3,1,170,5,172,image,3,3,spiral notebook,2
4,1,29,3,86,word,3,1,candlestick holder,2
4,1,29,3,86,word,3,2,candlestick holder,0
4,1,29,3,86,word,3,3,candlestick holder,3
4,1,61,5,121,image,3,1,wine glass,0
4,1,61,5,121,image,3,2,wine glass,2
4,1,61,5,121,image,3,3,wine glass,1
4,1,100,3,124,word,3,1,satellite,2
4,1,100,3,124,word,3,2,satellite,3
4,1,100,3,124,word,3,3,satellite,1
4,1,150,5,156,image,3,1,electric kettle,1
4,1,150,5,156,image,3,2,electric kettle,3
4,1,150,5,156,image,3,3,electric kettle,0
0,2,32,3,122,word,3,1,chain,1
0,2,32,3,122,word,3,2,chain,0
0,2,32,3,122,word,3,3,chain,2
0,2,78,5,98,image,3,1,sweater,3
0,2,78,5,98,image,3,2,sweater,2
0,2,78,5,98,image,3,3,sweater,1
0,2,161,3,163,word,3,1,mechanical pencil,3
0,2,161,3,163,word,3,2,mechanical pencil,1
0,2,161,3,163,word,3,3,mechanical pencil,0
0,2,186,5,188,image,3,1,lantern,3
0,2,186,5,188,image,3,2,lantern,1
0,2,186,5,188,image,3,3,lantern,2
1,2,57,5,90,image,3,1,computer drive or chip,2
1,2,57,5,90,image,3,2,computer drive or chip,1
1,2,57,5,90,image,3,3,computer drive or chip,3
1,2,131,3,174,word,3,1,glove,1
1,2,131,3,174,word,3,2,glove,3
1,2,131,3,174,word,3,3,glove,2
1,2,181,5,184,image,3,1,clipboard,3
1,2,181,5,184,image,3,2,clipboard,0
1,2,181,5,184,image,3,3,clipboard,2
1,2,206,3,207,word,3,1,frame,0
1,2,206,3,207,word,3,2,frame,3
1,2,206,3,207,word,3,3,frame,2
2,2,32,5,122,image,3,1,chain,1
2,2,32,5,122,image,3,2,chain,0
2,2,32,5,122,image,3,3,chain,3
2,2,117,3,135,word,3,1,airplane,2
2,2,117,3,135,word,3,2,airplane,1
2,2,117,3,135,word,3,3,airplane,0
2,2,161,5,163,image,3,1,mechanical pencil,2
2,2,161,5,163,image,3,2,mechanical pencil,0
2,2,161,5,163,image,3,3,mechanical pencil,3
2,2,202,3,208,word,3,1,zip tie,2
2,2,202,3,208,word,3,2,zip tie,3
2,2,202,3,208,word,3,3,zip tie,1
3,2,78,3,98,word,3,1,sweater,0
3,2,78,3,98,word,3,2,sweater,3
3,2,78,3,98,word,3,3,sweater,2
3,2,131,5,174,image,3,1,glove,3
3,2,131,5,174,image,3,2,glove,0
3,2,131,5,174,image,3,3,glove,2
3,2,186,3,188,word,3,1,lantern,3
3,2,186,3,188,word,3,2,lantern,2
3,2,186,3,188,word,3,3,lantern,0
3,2,206,5,207,image,3,1,frame,0
3,2,206,5,207,image,3,2,frame,2
3,2,206,5,207,image,3,3,frame,3
4,2,57,3,90,word,3,1,computer drive or chip,1
4,2,57,3,90,word,3,2,computer drive or chip,0
4,2,57,3,90,word,3,3,computer drive or chip,2
4,2,117,5,135,image,3,1,airplane,3
4,2,117,5,135,image,3,2,airplane,0
4,2,117,5,135,image,3,3,airplane,2
4,2,181,3,184,word,3,1,clipboard,2
4,2,181,3,184,word,3,2,clipboard,0
4,2,181,3,184,word,3,3,clipboard,3
4,2,202,5,208,image,3,1,zip tie,2
4,2,202,5,208,image,3,2,zip tie,1
4,2,202,5,208,image,3,3,zip tie,3
0,3,8,3,153,word,3,1,bed,0
0,3,8,3,153,word,3,2,bed,1
0,3,8,3,153,word,3,3,bed,2
0,3,43,5,44,image,3,1,crayon,1
0,3,43,5,44,image,3,2,crayon,0
0,3,43,5,44,image,3,3,crayon,3
0,3,60,3,191,word,3,1,"ethernet or electrical cable, cord, or wire",0
0,3,60,3,191,word,3,2,"ethernet or electrical cable, cord, or wire",1
0,3,60,3,191,word,3,3,"ethernet or electrical cable, cord, or wire",2
0,3,128,5,143,image,3,1,life jacket or vest,0
0,3,128,5,143,image,3,2,life jacket or vest,3
0,3,128,5,143,image,3,3,life jacket or vest,1
1,3,31,5,47,image,3,1,cell phone,2
1,3,31,5,47,image,3,2,cell phone,0
1,3,31,5,47,image,3,3,cell phone,3
1,3,59,3,79,word,3,1,car keys,1
1,3,59,3,79,word,3,2,car keys,0
1,3,59,3,79,word,3,3,car keys,3
1,3,111,5,125,image,3,1,child's rattle,0
1,3,111,5,125,image,3,2,child's rattle,2
1,3,111,5,125,image,3,3,child's rattle,1
1,3,204,3,205,word,3,1,bow tie,3
1,3,204,3,205,word,3,2,bow tie,2
1,3,204,3,205,word,3,3,bow tie,0
2,3,8,5,153,image,3,1,bed,2
2,3,8,5,153,image,3,2,bed,3
2,3,8,5,153,image,3,3,bed,0
2,3,45,3,165,word,3,1,cutting board,1
2,3,45,3,165,word,3,2,cutting board,2
2,3,45,3,165,word,3,3,cutting board,0
2,3,60,5,191,image,3,1,"ethernet or electrical cable, cord, or wire",1
2,3,60,5,191,image,3,2,"ethernet or electrical cable, cord, or wire",2
2,3,60,5,191,image,3,3,"ethernet or electrical cable, cord, or wire",3
2,3,129,3,166,word,3,1,knotted rope,0
2,3,129,3,166,word,3,2,knotted rope,2
2,3,129,3,166,word,3,3,knotted rope,1
3,3,43,3,44,word,3,1,crayon,0
3,3,43,3,44,word,3,2,crayon,1
3,3,43,3,44,word,3,3,crayon,3
3,3,59,5,79,image,3,1,car keys,1
3,3,59,5,79,image,3,2,car keys,2
3,3,59,5,79,image,3,3,car keys,0
3,3,128,3,143,word,3,1,life jacket or vest,0
3,3,128,3,143,word,3,2,life jacket or vest,3
3,3,128,3,143,word,3,3,life jacket or vest,2
3,3,204,5,205,image,3,1,bow tie,3
3,3,204,5,205,image,3,2,bow tie,0
3,3,204,5,205,image,3,3,bow tie,2
4,3,31,3,47,word,3,1,cell phone,2
4,3,31,3,47,word,3,2,cell phone,0
4,3,31,3,47,word,3,3,cell phone,1
4,3,45,5,165,image,3,1,cutting board,2
4,3,45,5,165,image,3,2,cutting board,0
4,3,45,5,165,image,3,3,cutting board,1
4,3,111,3,125,word,3,1,child's rattle,0
4,3,111,3,125,word,3,2,child's rattle,3
4,3,111,3,125,word,3,3,child's rattle,1
4,3,129,5,166,image,3,1,knotted rope,0
4,3,129,5,166,image,3,2,knotted rope,3
4,3,129,5,166,image,3,3,knotted rope,2
0,4,7,3,119,word,3,1,battery,1
0,4,7,3,119,word,3,2,battery,2
0,4,7,3,119,word,3,3,battery,0
0,4,30,5,69,image,3,1,cane,0
0,4,30,5,69,image,3,2,cane,2
0,4,30,5,69,image,3,3,cane,3
0,4,93,3,190,word,3,1,sled,2
0,4,93,3,190,word,3,2,sled,3
0,4,93,3,190,word,3,3,sled,1
0,4,154,5,176,image,3,1,ladle,0
0,4,154,5,176,image,3,2,ladle,3
0,4,154,5,176,image,3,3,ladle,1
1,4,26,5,52,image,3,1,camera,3
1,4,26,5,52,image,3,2,camera,1
1,4,26,5,52,image,3,3,camera,2
1,4,66,3,95,word,3,1,wallet,0
1,4,66,3,95,word,3,2,wallet,3
1,4,66,3,95,word,3,3,wallet,2
1,4,146,5,147,image,3,1,door hinge,0
1,4,146,5,147,image,3,2,door hinge,1
1,4,146,5,147,image,3,3,door hinge,2
1,4,183,3,185,word,3,1,microphone,0
1,4,183,3,185,word,3,2,microphone,2
1,4,183,3,185,word,3,3,microphone,1
2,4,7,5,119,image,3,1,battery,0
2,4,7,5,119,image,3,2,battery,1
2,4,7,5,119,image,3,3,battery,3
2,4,50,3,80,word,3,1,wooden dresser,1
2,4,50,3,80,word,3,2,wooden dresser,3
2,4,50,3,80,word,3,3,wooden dresser,0
2,4,93,5,190,image,3,1,sled,2
2,4,93,5,190,image,3,2,sled,3
2,4,93,5,190,image,3,3,sled,0
2,4,159,3,162,word,3,1,crowbar,3
2,4,159,3,162,word,3,2,crowbar,0
2,4,159,3,162,word,3,3,crowbar,1
3,4,30,3,69,word,3,1,cane,3
3,4,30,3,69,word,3,2,cane,0
3,4,30,3,69,word,3,3,cane,2
3,4,66,5,95,image,3,1,wallet,0
3,4,66,5,95,image,3,2,wallet,2
3,4,66,5,95,image,3,3,wallet,1
3,4,154,3,176,word,3,1,ladle,3
3,4,154,3,176,word,3,2,ladle,2
3,4,154,3,176,word,3,3,ladle,1
3,4,183,5,185,image,3,1,microphone,0
3,4,183,5,185,image,3,2,microphone,3
3,4,183,5,185,image,3,3,microphone,2
4,4,26,3,52,word,3,1,camera,2
4,4,26,3,52,word,3,2,camera,0
4,4,26,3,52,word,3,3,camera,3
4,4,50,5,80,image,3,1,wooden dresser,3
4,4,50,5,80,image,3,2,wooden dresser,2
4,4,50,5,80,image,3,3,wooden dresser,1
4,4,146,3,147,word,3,1,door hinge,2
4,4,146,3,147,word,3,2,door hinge,0
4,4,146,3,147,word,3,3,door hinge,1
4,4,159,5,162,image,3,1,crowbar,3
4,4,159,5,162,image,3,2,crowbar,1
4,4,159,5,162,image,3,3,crowbar,0
0,5,4,3,34,word,3,1,bandanna,2
0,5,4,3,34,word,3,2,bandanna,1
0,5,4,3,34,word,3,3,bandanna,3
0,5,28,5,137,image,3,1,candle,0
0,5,28,5,137,image,3,2,candle,3
0,5,28,5,137,image,3,3,candle,2
0,5,115,3,118,word,3,1,puzzle piece,0
0,5,115,3,118,word,3,2,puzzle piece,3
0,5,115,3,118,word,3,3,puzzle piece,1
0,5,133,5,192,image,3,1,guitar,2
0,5,133,5,192,image,3,2,guitar,0
0,5,133,5,192,image,3,3,guitar,1
1,5,11,5,103,image,3,1,bib,0
1,5,11,5,103,image,3,2,bib,3
1,5,11,5,103,image,3,3,bib,2
1,5,76,3,113,word,3,1,thimble,1
1,5,76,3,113,word,3,2,thimble,2
1,5,76,3,113,word,3,3,thimble,0
1,5,126,5,167,image,3,1,wood stove,2
1,5,126,5,167,image,3,2,wood stove,1
1,5,126,5,167,image,3,3,wood stove,0
1,5,193,3,198,word,3,1,razor,1
1,5,193,3,198,word,3,2,razor,0
1,5,193,3,198,word,3,3,razor,3
2,5,4,5,34,image,3,1,bandanna,2
2,5,4,5,34,image,3,2,bandanna,3
2,5,4,5,34,image,3,3,bandanna,1
2,5,37,3,112,word,3,1,comb,1
2,5,37,3,112,word,3,2,comb,3
2,5,37,3,112,word,3,3,comb,0
2,5,115,5,118,image,3,1,puzzle piece,1
2,5,115,5,118,image,3,2,puzzle piece,3
2,5,115,5,118,image,3,3,puzzle piece,2
2,5,140,3,144,word,3,1,hammer,2
2,5,140,3,144,word,3,2,hammer,1
2,5,140,3,144,word,3,3,hammer,0
3,5,28,3,137,word,3,1,candle,3
3,5,28,3,137,word,3,2,candle,1
3,5,28,3,137,word,3,3,candle,0
3,5,76,5,113,image,3,1,thimble,1
3,5,76,5,113,image,3,2,thimble,3
3,5,76,5,113,image,3,3,thimble,2
3,5,133,3,192,word,3,1,guitar,1
3,5,133,3,192,word,3,2,guitar,0
3,5,133,3,192,word,3,3,guitar,2
3,5,193,5,198,image,3,1,razor,2
3,5,193,5,198,image,3,2,razor,1
3,5,193,5,198,image,3,3,razor,3
4,5,11,3,103,word,3,1,bib,1
4,5,11,3,103,word,3,2,bib,0
4,5,11,3,103,word,3,3,bib,3
4,5,37,5,112,image,3,1,comb,3
4,5,37,5,112,image,3,2,comb,2
4,5,37,5,112,image,3,3,comb,1
4,5,126,3,167,word,3,1,wood stove,1
4,5,126,3,167,word,3,2,wood stove,2
4,5,126,3,167,word,3,3,wood stove,3
4,5,140,5,144,image,3,1,hammer,1
4,5,140,5,144,image,3,2,hammer,3
4,5,140,5,144,image,3,3,hammer,0
